\relax 
\providecommand\hyper@newdestlabel[2]{}
\providecommand\HyperFirstAtBeginDocument{\AtBeginDocument}
\HyperFirstAtBeginDocument{\ifx\hyper@anchor\@undefined
\global\let\oldcontentsline\contentsline
\gdef\contentsline#1#2#3#4{\oldcontentsline{#1}{#2}{#3}}
\global\let\oldnewlabel\newlabel
\gdef\newlabel#1#2{\newlabelxx{#1}#2}
\gdef\newlabelxx#1#2#3#4#5#6{\oldnewlabel{#1}{{#2}{#3}}}
\AtEndDocument{\ifx\hyper@anchor\@undefined
\let\contentsline\oldcontentsline
\let\newlabel\oldnewlabel
\fi}
\fi}
\global\let\hyper@last\relax 
\gdef\HyperFirstAtBeginDocument#1{#1}
\providecommand\HyField@AuxAddToFields[1]{}
\providecommand\HyField@AuxAddToCoFields[2]{}
\providecommand\babel@aux[2]{}
\@nameuse{bbl@beforestart}
\citation{imbens2015causal}
\citation{dorie2019automated}
\bibstyle{apacite}
\bibdata{references}
\bibcite{dorie2019automated}{{1}{{\APACyear {2019}}}{{Dorie\ \BOthers {.}}}{{Dorie, Hill, Shalit, Scott,{}\ \&{} Cervone}}}
\bibcite{imbens2015causal}{{2}{{\APACyear {2015}}}{{Imbens\ \&{} Rubin}}{{Imbens\ \&{} Rubin}}}
\providecommand \oddpage@label [2]{}
\babel@aux{english}{}
\providecommand*\caption@xref[2]{\@setref\relax\@undefined{#1}}
\newlabel{table:picot}{{1}{1}{\textbf {PICO(T)} components help to identify the target trial for the medical question of interest.\relax }{Doc-Start}{}}
\@writefile{snm}{\beamer@slide {table:picot}{1}}
\newlabel{table:albumin_for_sepsis:table1_simple}{{2}{1}{\textbf {Population characteristics on MIMIC-IV} measured on the first 24 hours of ICU stay.\relax }{Doc-Start}{}}
\@writefile{snm}{\beamer@slide {table:albumin_for_sepsis:table1_simple}{1}}
\newlabel{fig:vibration:itb}{{3a}{1}{Framing -- Immortal Time Bias\relax }{Doc-Start}{}}
\@writefile{snm}{\beamer@slide {fig:vibration:itb}{1}}
\newlabel{sub@fig:vibration:itb}{{a}{1}{Framing -- Immortal Time Bias\relax }{Doc-Start}{}}
\@writefile{snm}{\beamer@slide {sub@fig:vibration:itb}{1}}
\newlabel{fig:vibration:confounders}{{3b}{1}{Identification -- confounders choice\relax }{Doc-Start}{}}
\@writefile{snm}{\beamer@slide {fig:vibration:confounders}{1}}
\newlabel{sub@fig:vibration:confounders}{{b}{1}{Identification -- confounders choice\relax }{Doc-Start}{}}
\@writefile{snm}{\beamer@slide {sub@fig:vibration:confounders}{1}}
\newlabel{fig:vibration:models}{{3c}{1}{Model selection\relax }{Doc-Start}{}}
\@writefile{snm}{\beamer@slide {fig:vibration:models}{1}}
\newlabel{sub@fig:vibration:models}{{c}{1}{Model selection\relax }{Doc-Start}{}}
\@writefile{snm}{\beamer@slide {sub@fig:vibration:models}{1}}
\newlabel{fig:vibration_analysis}{{3}{1}{\textbf {Forest plots for the vibration analysis -- All three analytical steps are equally important for the validity of the analysis.}The diamonds depict the mean effect and the bar are the 95\% confidence intervals obtained respectively by 30, 30 and 50 bootstrap repetitions. For framing and identification, the estimator is a doubly robust learner (AIPW) with random forests for nuisances. Features are aggregated by taking the first and last measurements for all experiments.\relax }{Doc-Start}{}}
\@writefile{snm}{\beamer@slide {fig:vibration_analysis}{1}}
\newlabel{fig:albumin_for_sepsis:cate_results}{{4}{1}{\textbf {Individual treatment effects} -- The subgroup estimates showed better treatment efficacy for patients older than 60 years, septic shock, and to a lower extent males. The final estimator is ridge regression. The boxes contain the $25^\text {th}$ and $75^\text {th}$ percentiles of the CATE distributions with the median indicated by the vertical line. The whiskers extend to 1.5 times the inter-quartile range of the distribution.\relax }{Doc-Start}{}}
\@writefile{snm}{\beamer@slide {fig:albumin_for_sepsis:cate_results}{1}}
\@writefile{nav}{\headcommand {\beamer@sectionpages {1}{0}}}
\@writefile{nav}{\headcommand {\beamer@subsectionpages {1}{0}}}
\@writefile{nav}{\headcommand {\sectionentry {1}{References}{1}{References}{0}}}
\@writefile{nav}{\headcommand {\slideentry {1}{0}{0}{1/1}{}{0}}}
\@writefile{nav}{\headcommand {\beamer@framepages {1}{1}}}
\@writefile{nav}{\headcommand {\beamer@partpages {1}{1}}}
\@writefile{nav}{\headcommand {\beamer@subsectionpages {1}{1}}}
\@writefile{nav}{\headcommand {\beamer@sectionpages {1}{1}}}
\@writefile{nav}{\headcommand {\beamer@documentpages {1}}}
\@writefile{nav}{\headcommand {\gdef \inserttotalframenumber {1}}}
\gdef \@abspage@last{1}
